<?xml version="1.0" encoding="UTF-8" standalone="no"?>
<!-- Created with Inkscape (http://www.inkscape.org/) -->

<svg
   width="146.33159mm"
   height="282.23505mm"
   viewBox="0 0 146.3316 282.23505"
   version="1.1"
   id="svg5"
   xmlns="http://www.w3.org/2000/svg"
   xmlns:svg="http://www.w3.org/2000/svg">
  <defs
     id="defs2" />
  <g
     id="layer1"
     transform="translate(-52.817681,-66.872806)">
    <g
       id="g12807">
      <g
         id="g12561">
        <rect
           style="fill:#d2810e;fill-opacity:1;stroke:none;stroke-width:0.264999;stroke-linecap:round;stroke-linejoin:round"
           id="rect8384"
           width="15.822881"
           height="38.098583"
           x="118.27054"
           y="153.66"
           ry="5.0161667"
           rx="5.0161667" />
        <path
           id="rect9786"
           style="fill:#a4650b;fill-opacity:1;stroke:none;stroke-width:1.00157;stroke-linecap:round;stroke-linejoin:round"
           d="m 229.66406,408.64844 c -3.16542,5.36884 -5.55264,11.22995 -7.74609,17.08594 -5.97634,15.95531 -10.86748,32.82898 -9.39063,49.80273 0.90834,10.43981 4.21434,20.68473 3.8125,31.15625 -0.20107,5.23578 -1.37409,10.51669 -4.0664,15.01172 -2.69227,4.49499 -7.01083,8.14092 -12.10352,9.37304 -2.33662,0.56535 -4.76259,0.61947 -7.16406,0.73047 -2.40144,0.11112 -4.83331,0.28734 -7.10352,1.07813 -2.99047,1.04183 -5.57325,3.13942 -7.35156,5.75976 -0.0324,0.0477 -0.06,0.0985 -0.0918,0.14649 3.46532,4.41242 8.84906,7.24023 14.91993,7.24023 h 21.88476 c 10.50314,0 18.95899,-8.45389 18.95899,-18.95703 V 420.99805 c 0,-4.72752 -1.71683,-9.03608 -4.5586,-12.34961 z"
           transform="matrix(0.26458333,0,0,0.26458333,72.122051,47.287074)" />
        <ellipse
           style="fill:#8a4109;fill-opacity:1;stroke:none;stroke-width:0.264999;stroke-linecap:round;stroke-linejoin:round"
           id="path11864"
           cx="123.51965"
           cy="163.66147"
           rx="1.8810626"
           ry="3.3792064" />
      </g>
      <g
         id="g12561-6"
         transform="rotate(5,-318.03001,172.7093)">
        <rect
           style="fill:#d2810e;fill-opacity:1;stroke:none;stroke-width:0.264999;stroke-linecap:round;stroke-linejoin:round"
           id="rect8384-7"
           width="15.822881"
           height="38.098583"
           x="118.27054"
           y="153.66"
           ry="5.0161667"
           rx="5.0161667" />
        <path
           id="rect9786-5"
           style="fill:#a4650b;fill-opacity:1;stroke:none;stroke-width:1.00157;stroke-linecap:round;stroke-linejoin:round"
           d="m 229.66406,408.64844 c -3.16542,5.36884 -5.55264,11.22995 -7.74609,17.08594 -5.97634,15.95531 -10.86748,32.82898 -9.39063,49.80273 0.90834,10.43981 4.21434,20.68473 3.8125,31.15625 -0.20107,5.23578 -1.37409,10.51669 -4.0664,15.01172 -2.69227,4.49499 -7.01083,8.14092 -12.10352,9.37304 -2.33662,0.56535 -4.76259,0.61947 -7.16406,0.73047 -2.40144,0.11112 -4.83331,0.28734 -7.10352,1.07813 -2.99047,1.04183 -5.57325,3.13942 -7.35156,5.75976 -0.0324,0.0477 -0.06,0.0985 -0.0918,0.14649 3.46532,4.41242 8.84906,7.24023 14.91993,7.24023 h 21.88476 c 10.50314,0 18.95899,-8.45389 18.95899,-18.95703 V 420.99805 c 0,-4.72752 -1.71683,-9.03608 -4.5586,-12.34961 z"
           transform="matrix(0.26458333,0,0,0.26458333,72.122051,47.287074)" />
        <ellipse
           style="fill:#8a4109;fill-opacity:1;stroke:none;stroke-width:0.264999;stroke-linecap:round;stroke-linejoin:round"
           id="path11864-3"
           cx="125.48856"
           cy="178.11313"
           rx="1.8810626"
           ry="3.3792064" />
      </g>
      <g
         id="g12561-6-5"
         transform="rotate(10,-318.03001,172.7093)">
        <rect
           style="fill:#d2810e;fill-opacity:1;stroke:none;stroke-width:0.264999;stroke-linecap:round;stroke-linejoin:round"
           id="rect8384-7-6"
           width="15.822881"
           height="38.098583"
           x="118.27054"
           y="153.66"
           ry="5.0161667"
           rx="5.0161667" />
        <path
           id="rect9786-5-2"
           style="fill:#a4650b;fill-opacity:1;stroke:none;stroke-width:1.00157;stroke-linecap:round;stroke-linejoin:round"
           d="m 229.66406,408.64844 c -3.16542,5.36884 -5.55264,11.22995 -7.74609,17.08594 -5.97634,15.95531 -10.86748,32.82898 -9.39063,49.80273 0.90834,10.43981 4.21434,20.68473 3.8125,31.15625 -0.20107,5.23578 -1.37409,10.51669 -4.0664,15.01172 -2.69227,4.49499 -7.01083,8.14092 -12.10352,9.37304 -2.33662,0.56535 -4.76259,0.61947 -7.16406,0.73047 -2.40144,0.11112 -4.83331,0.28734 -7.10352,1.07813 -2.99047,1.04183 -5.57325,3.13942 -7.35156,5.75976 -0.0324,0.0477 -0.06,0.0985 -0.0918,0.14649 3.46532,4.41242 8.84906,7.24023 14.91993,7.24023 h 21.88476 c 10.50314,0 18.95899,-8.45389 18.95899,-18.95703 V 420.99805 c 0,-4.72752 -1.71683,-9.03608 -4.5586,-12.34961 z"
           transform="matrix(0.26458333,0,0,0.26458333,72.122051,47.287074)" />
        <ellipse
           style="fill:#8a4109;fill-opacity:1;stroke:none;stroke-width:0.264999;stroke-linecap:round;stroke-linejoin:round"
           id="path11864-3-9"
           cx="129.46394"
           cy="160.67055"
           rx="1.8810626"
           ry="3.3792064" />
      </g>
      <g
         id="g12561-6-5-1"
         transform="rotate(13,-385.10183,166.84128)">
        <rect
           style="fill:#d2810e;fill-opacity:1;stroke:none;stroke-width:0.264999;stroke-linecap:round;stroke-linejoin:round"
           id="rect8384-7-6-2"
           width="15.822881"
           height="38.098583"
           x="118.27054"
           y="153.66"
           ry="5.0161667"
           rx="5.0161667" />
        <path
           id="rect9786-5-2-7"
           style="fill:#a4650b;fill-opacity:1;stroke:none;stroke-width:1.00157;stroke-linecap:round;stroke-linejoin:round"
           d="m 229.66406,408.64844 c -3.16542,5.36884 -5.55264,11.22995 -7.74609,17.08594 -5.97634,15.95531 -10.86748,32.82898 -9.39063,49.80273 0.90834,10.43981 4.21434,20.68473 3.8125,31.15625 -0.20107,5.23578 -1.37409,10.51669 -4.0664,15.01172 -2.69227,4.49499 -7.01083,8.14092 -12.10352,9.37304 -2.33662,0.56535 -4.76259,0.61947 -7.16406,0.73047 -2.40144,0.11112 -4.83331,0.28734 -7.10352,1.07813 -2.99047,1.04183 -5.57325,3.13942 -7.35156,5.75976 -0.0324,0.0477 -0.06,0.0985 -0.0918,0.14649 3.46532,4.41242 8.84906,7.24023 14.91993,7.24023 h 21.88476 c 10.50314,0 18.95899,-8.45389 18.95899,-18.95703 V 420.99805 c 0,-4.72752 -1.71683,-9.03608 -4.5586,-12.34961 z"
           transform="matrix(0.26458333,0,0,0.26458333,72.122051,47.287074)" />
        <ellipse
           style="fill:#8a4109;fill-opacity:1;stroke:none;stroke-width:0.264999;stroke-linecap:round;stroke-linejoin:round"
           id="path11864-3-9-0"
           cx="125.77425"
           cy="170.75116"
           rx="1.8810626"
           ry="3.3792064" />
      </g>
    </g>
    <g
       id="g12789"
       transform="translate(8.3304815,19.585502)">
      <path
         style="fill:#db6666;fill-opacity:1;stroke:none;stroke-width:0.264583px;stroke-linecap:butt;stroke-linejoin:miter;stroke-opacity:1"
         d="m 103.03931,99.792215 c -2.63259,0.462875 -5.31972,-0.1498 -7.936326,-0.695855 -2.616607,-0.546055 -5.358083,-1.024732 -7.933003,-0.307379 -1.95834,0.545578 -3.752428,1.835179 -4.661167,3.653679 -0.45437,0.90925 -0.68092,1.93622 -0.615556,2.95057 0.06536,1.01436 0.427016,2.01285 1.054561,2.81246 0.956023,1.21815 2.462188,1.90665 3.987153,2.17564 1.524966,0.26899 3.088349,0.16086 4.632532,0.0452 1.544182,-0.11566 3.104972,-0.23739 4.634355,0.005 1.529383,0.24262 3.048854,0.88948 4.046371,2.07389 0.86313,1.02484 1.27223,2.39081 1.24827,3.73048 -0.0239,1.33967 -0.46013,2.65198 -1.12591,3.81475 -1.331572,2.32553 -3.507089,4.02102 -5.567719,5.7342 -4.944168,4.11051 -9.510407,8.65071 -14.175366,13.07556 -2.943228,2.79174 -6.014453,5.66138 -7.56651,9.40938 -0.776028,1.874 -1.138657,3.94764 -0.828033,5.95204 0.310623,2.0044 1.331152,3.92852 2.950526,5.14988 1.771907,1.33641 4.14124,1.74287 6.328425,1.36622 2.187184,-0.37664 4.201331,-1.48003 5.915639,-2.88957 3.428615,-2.81906 5.69583,-6.7825 8.70447,-10.04603 3.654799,-3.96443 8.461968,-6.88311 13.703258,-8.14926 4.67121,-1.12843 9.76364,-0.9066 14.07611,1.21381 1.86715,0.91806 3.57108,2.18277 4.93538,3.75369 1.3643,1.57091 2.38373,3.4506 2.88528,5.46989 0.54132,2.17937 0.47552,4.46253 0.27637,6.69927 -0.19914,2.23675 -0.52843,4.46883 -0.50303,6.71428 0.0373,3.29986 0.86607,6.61382 2.56666,9.44198 1.70059,2.82816 4.29341,5.14737 7.37152,6.33722 3.0781,1.18986 6.63249,1.20108 9.64281,-0.15113 3.01031,-1.35222 5.40336,-4.09848 6.14631,-7.31384 0.46542,-2.01425 0.29455,-4.14462 -0.29546,-6.12595 -0.59001,-1.98134 -1.58679,-3.82305 -2.7585,-5.52625 -2.34343,-3.40641 -5.38299,-6.28411 -7.78177,-9.65176 -1.93845,-2.72139 -3.45662,-5.78889 -4.07215,-9.0729 -0.61554,-3.28401 -0.28282,-6.79768 1.27437,-9.75381 1.17534,-2.23123 2.99727,-4.07225 5.03291,-5.56086 2.03565,-1.48861 4.29037,-2.6474 6.55256,-3.76198 8.01438,-3.94869 16.25416,-7.42377 24.29487,-11.31856 1.91917,-0.92961 3.8351,-1.88794 5.58114,-3.11216 1.74605,-1.22422 3.32747,-2.73145 4.40127,-4.57383 1.07381,-1.84237 1.61082,-4.042576 1.23937,-6.142437 -0.18573,-1.04993 -0.5966,-2.063322 -1.22319,-2.926012 -0.62659,-0.862689 -1.47068,-1.571447 -2.44349,-2.007904 -1.40074,-0.628452 -3.00663,-0.672815 -4.51938,-0.410899 -1.51275,0.261916 -2.95756,0.813214 -4.398,1.344415 -1.44043,0.5312 -2.9016,1.048786 -4.4251,1.238458 -1.5235,0.189673 -3.1329,0.02854 -4.46759,-0.730162 -1.05073,-0.597283 -1.88233,-1.539481 -2.45401,-2.604364 -0.57167,-1.064883 -0.89406,-2.249957 -1.06476,-3.446474 -0.3414,-2.393034 -0.0906,-4.830737 -0.26079,-7.242003 -0.27107,-3.840846 -1.61239,-7.551136 -3.47972,-10.918428 -1.86733,-3.367292 -4.25309,-6.418021 -6.73771,-9.359492 -2.6152,-3.09606 -5.37773,-6.112484 -8.65819,-8.492278 -3.28045,-2.379793 -7.13349,-4.106285 -11.1791,-4.346889 -2.02281,-0.120302 -4.07521,0.135386 -5.98075,0.824696 -1.90553,0.68931 -3.66056,1.817822 -5.02033,3.320235 -1.35976,1.502412 -2.31485,3.381682 -2.64949,5.380238 -0.33464,1.998555 -0.0358,4.110244 0.9096,5.902554 0.99426,1.884889 2.65652,3.358078 4.51369,4.403193 1.85718,1.045115 3.91127,1.690759 5.97617,2.217584 2.0649,0.526825 4.15948,0.942772 6.19717,1.566602 2.0377,0.623831 4.03534,1.467868 5.72612,2.765032 2.94464,2.259129 4.78585,5.871324 4.96082,9.578611 0.17496,3.707288 -1.29669,7.447811 -3.89589,10.097102 -2.42521,2.47195 -5.88073,3.999169 -9.33669,3.778748 -1.72797,-0.110211 -3.43261,-0.650532 -4.88357,-1.595387 -1.45097,-0.944855 -2.64152,-2.296427 -3.35376,-3.874641 -0.61195,-1.355972 -0.8657,-2.845293 -1.01848,-4.325089 -0.15278,-1.479797 -0.21069,-2.971219 -0.45773,-4.438227 -0.24704,-1.467008 -0.69592,-2.928449 -1.55518,-4.142867 -0.42963,-0.607209 -0.95988,-1.14685 -1.57954,-1.558322 -0.61966,-0.411471 -1.32996,-0.692654 -2.06835,-0.782496 -1.19174,-0.145004 -2.41538,0.218753 -3.41224,0.887722 -0.99687,0.668969 -1.77764,1.6271 -2.35323,2.680644 -1.15119,2.107089 -1.49632,4.542233 -2.0619,6.875722 -0.7058,2.912008 -1.80421,5.775097 -3.62688,8.153289 -1.82267,2.378192 -4.42947,4.242467 -7.38052,4.761331 z"
         id="path892" />
      <path
         id="path1745"
         style="fill:#cf4d4d;fill-opacity:1;stroke:none;stroke-width:0.999999px;stroke-linecap:butt;stroke-linejoin:miter;stroke-opacity:1"
         d="m 716.79492,357.3418 c -6.08156,0.28743 -12.15853,1.23054 -18.07422,2.6289 -13.60117,3.21508 -26.52564,8.74902 -39.39843,14.19141 -38.89436,16.44386 -78.71205,32.68478 -111.19727,59.66406 -18.57693,15.42832 -34.83298,34.98563 -40.87695,58.36524 -6.23074,24.10206 -0.71118,50.6076 13.15429,71.2832 8.49423,12.66622 19.82693,23.18079 28.84375,35.48047 4.50842,6.14983 8.44903,12.78512 10.95118,19.98828 2.50214,7.20316 3.52424,15.01489 2.18359,22.52148 -1.74329,9.761 -7.3862,18.50394 -14.46094,25.45118 -4.08556,4.01193 -8.64788,7.47495 -13.41601,10.65625 0.0289,0.0112 0.0571,0.024 0.0859,0.0352 11.63379,4.49708 25.06775,4.53848 36.44532,-0.57226 11.37757,-5.11075 20.42248,-15.49005 23.23046,-27.64258 1.75906,-7.61291 1.11278,-15.66383 -1.11718,-23.15235 -2.22996,-7.48851 -5.99726,-14.44941 -10.42578,-20.88671 -8.85704,-12.8746 -20.34585,-23.75234 -29.41211,-36.48047 -7.32644,-10.28559 -13.06419,-21.87903 -15.39063,-34.29102 -2.32644,-12.41199 -1.06905,-25.69244 4.81641,-36.86523 4.44222,-8.43301 11.32965,-15.38938 19.02344,-21.01563 7.69378,-5.62624 16.2156,-10.00614 24.76562,-14.21875 30.29057,-14.92419 61.43217,-28.05882 91.82227,-42.7793 7.25355,-3.5135 14.49452,-7.13473 21.09375,-11.76171 6.59922,-4.62699 12.57629,-10.32381 16.63476,-17.28711 4.05847,-6.9633 6.08948,-15.28032 4.68555,-23.2168 -0.63424,-3.5854 -1.9695,-7.05404 -3.9668,-10.0957 z"
         transform="scale(0.26458333)" />
      <ellipse
         style="fill:#9e3030;fill-opacity:1;stroke-width:0.264999;stroke-linecap:round;stroke-linejoin:round"
         id="path1055"
         cx="126.7179"
         cy="117.81287"
         rx="14.601203"
         ry="11.891266" />
      <path
         id="path3250"
         style="fill:#cf4d4d;fill-opacity:1;stroke:none;stroke-width:0.999999px;stroke-linecap:butt;stroke-linejoin:miter;stroke-opacity:1"
         d="m 415.52148,506.73828 c -2.08888,0.006 -4.17879,0.12743 -6.24804,0.3457 -8.27703,0.87309 -16.31917,3.22228 -24.28125,5.64649 -13.09152,3.98597 -26.20837,8.24685 -38.17774,14.88086 -11.96936,6.634 -22.84024,15.84209 -29.45117,27.82422 -3.35562,6.08197 -5.54363,12.7275 -8.37109,19.07226 -2.82747,6.34476 -6.44117,12.56472 -11.92969,16.82227 -5.00224,3.88032 -11.28104,5.8522 -17.59766,6.40625 1.37762,1.71471 2.92994,3.28523 4.69336,4.61523 6.69698,5.05098 15.65145,6.58564 23.91797,5.16211 8.26653,-1.42353 15.8801,-5.59255 22.35938,-10.91992 12.95854,-10.65474 21.5272,-25.6361 32.89843,-37.9707 13.81342,-14.98368 31.98141,-26.0134 51.79102,-30.79883 12.02788,-2.90559 24.79311,-3.43621 36.86328,-0.94922 -4.40587,-7.09641 -10.64331,-13.15048 -18.24805,-16.57422 -5.69195,-2.56258 -11.9521,-3.58155 -18.21875,-3.5625 z"
         transform="scale(0.26458333)" />
      <path
         id="path5638"
         style="fill:#cf4d4d;fill-opacity:1;stroke:none;stroke-width:0.999999px;stroke-linecap:butt;stroke-linejoin:miter;stroke-opacity:1"
         d="m 472.22266,207.61328 c -3.48168,-0.0416 -6.95355,0.17136 -10.37696,0.70508 -0.75688,2.11876 -1.35459,4.29216 -1.72656,6.51367 -1.26478,7.5536 -0.13577,15.53451 3.4375,22.30859 3.75784,7.12399 10.03935,12.69254 17.05859,16.64258 7.01925,3.95004 14.78354,6.38971 22.58789,8.38086 7.80436,1.99115 15.72036,3.56409 23.42188,5.92188 7.70152,2.35778 15.25224,5.5485 21.64258,10.45117 11.12936,8.53844 18.08871,22.18938 18.75,36.20117 0.65096,13.79309 -4.73835,27.69914 -14.27735,37.68164 3.65064,-0.62586 7.19156,-1.91845 10.41407,-3.75195 9.44344,-5.373 15.8674,-15.16011 18.76758,-25.63086 3.10528,-11.21129 2.47357,-23.27595 -0.7793,-34.44531 -3.25287,-11.16936 -9.04406,-21.48777 -16.04688,-30.77735 -18.52121,-24.5693 -46.0933,-42.27831 -76.26172,-48.32422 -5.45605,-1.09342 -11.04598,-1.8105 -16.61132,-1.87695 z"
         transform="scale(0.26458333)" />
      <path
         id="ellipse8065"
         style="fill:#862929;fill-opacity:1;stroke-width:1.00157;stroke-linecap:round;stroke-linejoin:round"
         d="m 525.82031,421.58008 c -0.24159,0.28292 -0.47915,0.56759 -0.71093,0.85742 -3.25301,4.06762 -5.61564,8.76953 -7.76954,13.51172 -2.79769,6.15963 -5.31193,12.5018 -9.08203,18.11914 -3.7701,5.61734 -9.00659,10.5551 -15.49609,12.4668 -3.721,1.09614 -7.70072,1.14953 -11.52734,0.51367 -3.82663,-0.63587 -7.51488,-1.94517 -11.05665,-3.52735 -7.08353,-3.16435 -13.66701,-7.44216 -20.9707,-10.05859 -5.99294,-2.14687 -12.46074,-3.13039 -18.77734,-2.33984 -2.01472,0.25215 -4.01299,0.69264 -5.94922,1.3164 a 55.185649,44.943367 0 0 0 54.45312,37.78125 55.185649,44.943367 0 0 0 55.18555,-44.94336 55.185649,44.943367 0 0 0 -8.29883,-23.69726 z"
         transform="scale(0.26458333)" />
    </g>
    <g
       id="g33969"
       transform="rotate(20,109.58871,262.15519)">
      <path
         style="fill:#db6666;fill-opacity:1;stroke:none;stroke-width:0.264582px;stroke-linecap:butt;stroke-linejoin:miter;stroke-opacity:1"
         d="m 130.49424,303.24114 c -6.5305,0.63193 -13.15586,0.34639 -19.61147,1.51769 -7.11419,1.29079 -13.993788,4.43753 -19.105259,9.55131 -3.656021,3.65767 -6.322303,8.21544 -8.254134,13.01263 -1.931831,4.79719 -3.157029,9.8476 -4.20805,14.91123 -0.111237,0.53592 -0.221102,1.07724 -0.214274,1.62454 0.0068,0.5473 0.139527,1.10825 0.47072,1.54402 0.195558,0.25731 0.455603,0.46383 0.746487,0.60467 0.290884,0.14085 0.612019,0.21656 0.934924,0.23007 0.645812,0.027 1.287695,-0.1952 1.823482,-0.55677 0.535788,-0.36157 0.971452,-0.85657 1.328539,-1.39536 0.357087,-0.53879 0.639613,-1.12292 0.9132,-1.70854 2.44802,-5.24008 4.277387,-10.77182 7.065659,-15.83904 1.319628,-2.39821 2.912395,-4.74553 5.201258,-6.24684 1.144431,-0.75065 2.452488,-1.27192 3.813978,-1.41173 1.36149,-0.13981 2.77606,0.11482 3.95538,0.80937 1.25176,0.73722 2.19846,1.95106 2.68894,3.31848 0.49047,1.36742 0.53576,2.87815 0.21171,4.29427 -0.32405,1.41612 -1.00828,2.73838 -1.90983,3.8775 -0.90155,1.13912 -2.01692,2.09917 -3.23083,2.89718 -0.9733,0.63983 -2.03453,1.19784 -2.77773,2.0947 -0.371594,0.44843 -0.654978,0.98073 -0.751004,1.55514 -0.09603,0.57442 0.0073,1.19211 0.342117,1.66863 0.188347,0.26806 0.444857,0.48615 0.734367,0.63948 0.28952,0.15334 0.61143,0.24262 0.93771,0.27222 0.65255,0.0592 1.3112,-0.11976 1.89274,-0.42163 1.1631,-0.60376 2.01311,-1.65782 2.99686,-2.52359 2.1293,-1.87393 4.87275,-2.85476 7.40899,-4.1248 1.26812,-0.63503 2.50457,-1.35594 3.57315,-2.28842 1.06857,-0.93249 1.96764,-2.08944 2.44785,-3.4239 0.63937,-1.77673 0.50161,-3.72645 0.34644,-5.60834 -0.15517,-1.88188 -0.31241,-3.82644 0.29245,-5.61521 0.70298,-2.07894 2.4606,-3.7664 4.56163,-4.40028 2.10104,-0.63389 4.49068,-0.20403 6.24926,1.10882 1.42287,1.06223 2.41252,2.64752 2.90624,4.35313 0.49372,1.70562 0.51185,3.52623 0.22254,5.27814 -0.57862,3.50381 -2.33217,6.6814 -3.86913,9.88285 -0.66562,1.38647 -1.29841,2.80005 -1.66719,4.29316 -0.36878,1.49311 -0.46395,3.08072 -0.0542,4.56312 0.40971,1.4824 1.3632,2.84906 2.72523,3.56336 0.68102,0.35715 1.45358,0.54573 2.22192,0.51426 0.76835,-0.0315 1.53016,-0.28651 2.14628,-0.74666 0.727,-0.54296 1.22591,-1.34404 1.56404,-2.18607 0.33813,-0.84202 0.52987,-1.73396 0.75178,-2.61379 0.68986,-2.73513 1.6819,-5.3862 2.39069,-8.11648 0.70879,-2.73029 1.13171,-5.59239 0.65433,-8.37249 -0.32851,-1.91309 -1.07344,-3.73204 -1.45993,-5.63427 -0.19324,-0.95111 -0.29607,-1.92733 -0.20726,-2.8938 0.0888,-0.96648 0.37576,-1.92547 0.91458,-2.73271 0.79877,-1.19669 2.1261,-1.99636 3.53809,-2.27271 1.41199,-0.27636 2.89706,-0.0535 4.2242,0.50215 2.65428,1.11138 4.59345,3.43861 6.19932,5.8264 1.60588,2.38779 3.01634,4.95327 5.09336,6.94485 1.03851,0.99578 2.24278,1.83752 3.59008,2.34238 1.3473,0.50485 2.84418,0.65987 4.23947,0.3088 1.11771,-0.28123 2.14789,-0.88203 2.97126,-1.68853 0.82337,-0.8065 1.44141,-1.81467 1.82459,-2.90166 0.76636,-2.17398 0.57783,-4.61351 -0.23333,-6.77117 -0.76249,-2.02821 -2.05412,-3.83923 -3.63833,-5.31751 -1.58421,-1.47829 -3.45606,-2.63071 -5.44047,-3.50086 -3.96881,-1.7403 -8.32981,-2.35063 -12.63888,-2.81112 -4.32478,-0.46216 -8.68274,-0.79163 -13.02172,-0.49063 -2.28124,0.15825 -4.54669,0.49011 -6.82278,0.71036 z"
         id="path12842" />
      <path
         id="path16115"
         style="fill:#cf4d4d;fill-opacity:1;stroke:none;stroke-width:0.999995px;stroke-linecap:butt;stroke-linejoin:miter;stroke-opacity:1"
         d="m 345.78906,978.28125 c -1.41967,2.58742 -2.37301,5.42153 -2.71679,8.35156 -0.54495,4.64449 0.42153,9.37258 2.14257,13.72069 1.72105,4.3481 4.17588,8.362 6.71485,12.2891 2.48221,3.8393 5.08847,7.6828 6.49414,12.0332 0.70283,2.1752 1.09265,4.4669 0.97851,6.75 -0.11414,2.283 -0.74694,4.558 -1.97461,6.4863 -1.63682,2.5709 -4.2624,4.4152 -7.11718,5.4824 -2.85479,1.0673 -5.93665,1.4056 -8.98438,1.418 -3.15388,0.013 -6.32195,-0.3085 -9.47656,-0.4785 3.69781,3.3644 7.91188,6.197 12.58789,7.9492 5.09215,1.9081 10.74989,2.4929 16.02344,1.166 4.22442,-1.0629 8.11853,-3.3327 11.23047,-6.3808 3.11194,-3.0482 5.44629,-6.8585 6.89453,-10.9668 2.89647,-8.2166 2.18494,-17.4369 -0.88086,-25.5918 -2.88187,-7.6657 -7.7644,-14.51048 -13.75196,-20.09769 -5.3445,-4.98716 -11.55781,-8.98907 -18.16406,-12.13086 z"
         transform="matrix(0.26458333,0,0,0.26458333,72.122051,47.287074)" />
      <path
         id="path25055"
         style="fill:#cf4d4d;fill-opacity:1;stroke:none;stroke-width:0.999999px;stroke-linecap:butt;stroke-linejoin:miter;stroke-opacity:1"
         d="m 256.91797,1005.582 c -1.57027,0.022 -3.13442,0.3262 -4.56836,0.961 -2.07621,0.9191 -3.86184,2.5376 -4.84961,4.582 -1.12854,2.3358 -1.16957,5.0736 -0.65039,7.6152 0.51918,2.5417 1.56151,4.9417 2.54101,7.3438 3.75084,9.1984 6.70391,19.1462 5.20899,28.9668 -1.44229,9.4748 -6.8934,17.9428 -8.625,27.3691 -0.93923,5.1129 -0.76661,10.4278 -2.23633,15.4141 -0.73486,2.4931 -1.89713,4.8969 -3.6582,6.8086 -1.76108,1.9116 -4.15946,3.3013 -6.7461,3.5566 -2.77784,0.2742 -5.56671,-0.7682 -7.83398,-2.3965 -2.26727,-1.6282 -4.07529,-3.8089 -5.73828,-6.0507 -1.50578,-2.03 -2.92319,-4.1344 -4.57422,-6.045 -0.12238,0.443 -0.24906,0.8854 -0.35938,1.3321 -1.3938,5.6432 -1.75358,11.6433 -0.20507,17.2461 1.5485,5.6027 5.15293,10.767 10.30078,13.4668 2.57392,1.3498 5.49251,2.0623 8.39648,1.9433 2.90398,-0.119 5.78463,-1.0812 8.11328,-2.8203 2.74773,-2.0521 4.63219,-5.0812 5.91016,-8.2637 1.27797,-3.1824 2.00308,-6.5536 2.8418,-9.8789 2.60733,-10.3375 6.35626,-20.3566 9.03515,-30.6758 2.67889,-10.3191 4.27694,-21.137 2.47266,-31.6445 -1.2416,-7.2306 -4.05685,-14.1054 -5.51758,-21.2949 -0.73036,-3.5948 -1.11887,-7.2847 -0.7832,-10.9375 0.20705,-2.2532 0.70078,-4.4939 1.52539,-6.5977 z"
         transform="matrix(0.26458333,0,0,0.26458333,72.122051,47.287074)" />
      <path
         id="path27401"
         style="fill:#cf4d4d;fill-opacity:1;stroke:none;stroke-width:0.999999px;stroke-linecap:butt;stroke-linejoin:miter;stroke-opacity:1"
         d="m 181.75195,1008.5527 c -1.9486,0.014 -3.8824,0.4059 -5.62304,1.2696 -2.49872,1.2398 -4.47945,3.3926 -5.78907,5.8554 -1.30961,2.4629 -1.98146,5.2259 -2.27343,8 -0.58394,5.5482 0.30823,11.1528 0.0293,16.7246 -0.29341,5.861 -1.9137,11.6769 -4.88672,16.7364 -2.97301,5.0594 -7.31306,9.3397 -12.51757,12.0508 -4.97085,2.5893 -10.57048,3.7048 -16.12696,4.4394 -1.89565,0.2506 -3.79784,0.4652 -5.69922,0.6836 -3.32104,4.0489 -7.35087,7.4913 -11.72851,10.3691 -3.6786,2.4183 -7.68913,4.5283 -10.49805,7.918 -1.40446,1.6949 -2.47495,3.7059 -2.83789,5.877 -0.36293,2.171 0.0275,4.5056 1.29297,6.3066 0.71187,1.0131 1.68115,1.8365 2.77539,2.416 1.09424,0.5796 2.31175,0.9174 3.54492,1.0293 2.46634,0.2238 4.95437,-0.4528 7.15235,-1.5937 4.39595,-2.282 7.61001,-6.265 11.32812,-9.5371 8.04774,-7.0826 18.41617,-10.7897 28.00195,-15.5899 4.79289,-2.4001 9.4652,-5.1241 13.50391,-8.6484 4.03871,-3.5244 7.43698,-7.8978 9.25195,-12.9414 2.41651,-6.7152 1.89702,-14.0847 1.31055,-21.1973 -0.58647,-7.1126 -1.18258,-14.4619 1.10352,-21.2227 0.97863,-2.8941 2.50188,-5.5855 4.42773,-7.9531 -0.739,-0.2538 -1.49162,-0.4673 -2.25781,-0.6308 -1.14021,-0.2434 -2.31521,-0.3698 -3.48438,-0.3614 z"
         transform="matrix(0.26458333,0,0,0.26458333,72.122051,47.287074)" />
      <path
         id="path32947"
         style="fill:#cf4d4d;fill-opacity:1;stroke:none;stroke-width:0.999999px;stroke-linecap:butt;stroke-linejoin:miter;stroke-opacity:1"
         d="m 90.085938,1027.7207 c -0.264431,0 -0.529072,0.015 -0.792969,0.035 -2.111174,0.1573 -4.189522,0.8252 -5.964844,1.9785 -7.231162,3.36 -11.226456,9.8863 -16.244383,17.0499 -3.462929,5.0641 -7.172272,10.0631 -9.629964,15.6842 -2.572095,5.8827 -3.505931,12.3532 -5.206641,18.5443 -1.524533,5.5497 -1.666549,11.6538 -4.479769,16.6747 -1.653789,2.9517 -4.139113,5.5346 -6.985033,7.3644 -3.688273,2.3712 -5.190126,6.1433 -12.440538,4.2743 -0.389715,1.8108 -0.7781,3.6211 -1.154297,5.4336 -0.420424,2.0255 -0.836354,4.072 -0.810547,6.1406 0.02581,2.0685 0.527543,4.1889 1.779297,5.8359 0.739119,0.9725 1.72286,1.7529 2.822266,2.2852 1.099405,0.5323 2.312772,0.818 3.533203,0.8691 2.440862,0.1022 4.8656,-0.7369 6.890625,-2.1035 2.025024,-1.3666 3.671865,-3.239 5.021484,-5.2754 1.349619,-2.0363 2.419097,-4.2436 3.453125,-6.457 9.252359,-19.805 16.164774,-40.7116 26.703125,-59.8633 4.987572,-9.0641 11.007383,-17.9371 19.658203,-23.6113 0.98719,-0.6475 2.009974,-1.2426 3.056641,-1.793 -1.16166,-0.8543 -2.422893,-1.5657 -3.773438,-2.084 -1.72944,-0.6636 -3.584533,-1.011 -5.435546,-0.9824 z"
         transform="matrix(0.26458333,0,0,0.26458333,72.122051,47.287074)" />
    </g>
  </g>
</svg>
