<?xml version="1.0" encoding="UTF-8" standalone="no"?>
<!-- Created with Inkscape (http://www.inkscape.org/) -->

<svg
   width="30.48357mm"
   height="41.410656mm"
   viewBox="0 0 30.48357 41.410655"
   version="1.1"
   id="svg5"
   inkscape:version="1.1 (c4e8f9ed74, 2021-05-24)"
   sodipodi:docname="red_berry.svg"
   xmlns:inkscape="http://www.inkscape.org/namespaces/inkscape"
   xmlns:sodipodi="http://sodipodi.sourceforge.net/DTD/sodipodi-0.dtd"
   xmlns="http://www.w3.org/2000/svg"
   xmlns:svg="http://www.w3.org/2000/svg">
  <sodipodi:namedview
     id="namedview7"
     pagecolor="#505050"
     bordercolor="#eeeeee"
     borderopacity="1"
     inkscape:pageshadow="0"
     inkscape:pageopacity="0"
     inkscape:pagecheckerboard="0"
     inkscape:document-units="mm"
     showgrid="false"
     fit-margin-top="0"
     fit-margin-left="0"
     fit-margin-right="0"
     fit-margin-bottom="0"
     inkscape:zoom="1.5411756"
     inkscape:cx="-108.68326"
     inkscape:cy="46.068727"
     inkscape:window-width="1916"
     inkscape:window-height="1025"
     inkscape:window-x="0"
     inkscape:window-y="0"
     inkscape:window-maximized="1"
     inkscape:current-layer="layer1" />
  <defs
     id="defs2" />
  <g
     inkscape:label="Layer 1"
     inkscape:groupmode="layer"
     id="layer1"
     transform="translate(-119.65235,-46.056273)">
    <path
       style="fill:#c72f2f;fill-opacity:1;stroke:none;stroke-width:0.265;stroke-linecap:butt;stroke-linejoin:miter;stroke-miterlimit:4;stroke-dasharray:none;stroke-opacity:1"
       d="m 136.68447,87.465005 c -5.57487,0.09565 -7.69802,-3.379602 -9.10614,-8.854725 -1.40812,-5.475125 -4.20776,-7.722522 -4.06547,-15.400678 1.89263,-13.29658 25.33014,-11.865194 26.34322,0 0.4125,7.341574 -2.16335,9.143219 -4.24586,14.617785 -2.0825,5.474566 -3.35088,9.541968 -8.92575,9.637618 z"
       id="path27384"
       sodipodi:nodetypes="zzcczz" />
    <path
       id="path37246"
       style="fill:#842121;fill-opacity:1;stroke:none;stroke-width:1.00157;stroke-linecap:butt;stroke-linejoin:miter;stroke-miterlimit:4;stroke-dasharray:none;stroke-opacity:1"
       d="m 134.95703,42.699219 c -5.51604,5.514426 -9.38594,12.706188 -10.66211,21.671875 -0.53779,29.019802 10.04321,37.515596 15.36524,58.208986 5.32202,20.69338 13.34759,33.82635 34.41796,33.46484 21.07038,-0.36151 25.86351,-15.73255 33.73438,-36.42383 2.52469,-6.63699 5.23684,-11.84386 7.71094,-16.77343 -5.0013,1.09162 -9.9895,2.27296 -14.14258,4.6914 -8.09069,4.71143 -12.71542,16.99514 -22.07031,17.37305 -8.35117,0.33736 -15.53383,-7.45186 -20.88867,-13.86914 -11.06194,-13.256709 -16.20806,-30.850691 -20.4629,-47.583986 -1.71779,-6.755692 -2.75487,-13.75644 -3.00195,-20.759765 z"
       transform="matrix(0.26458333,0,0,0.26458333,90.626507,46.177888)" />
    <path
       style="fill:#307c2c;fill-opacity:1;stroke:none;stroke-width:0.264583px;stroke-linecap:butt;stroke-linejoin:miter;stroke-opacity:1"
       d="m 134.7464,53.214442 c -1.10689,-3.598297 -5.77938,-2.373241 -8.50964,-1.094556 -2.10783,0.987175 -6.58441,3.600667 -6.58441,3.600667 0,0 5.39932,3.031548 8.82521,3.366298 2.82424,0.275962 7.37573,-2.274112 6.26884,-5.872409 z"
       id="path36539"
       sodipodi:nodetypes="zscsz" />
    <path
       style="fill:#43b23e;fill-opacity:1;stroke:none;stroke-width:0.264583px;stroke-linecap:butt;stroke-linejoin:miter;stroke-opacity:1"
       d="m 134.836,54.316198 c 0.46525,3.735849 5.27947,3.340751 8.19031,2.555608 2.24721,-0.606156 7.10961,-2.402598 7.10961,-2.402598 0,0 -4.79089,-3.923042 -8.10658,-4.847652 -2.7334,-0.762174 -7.65856,0.958794 -7.19334,4.694642 z"
       id="path36539-6"
       sodipodi:nodetypes="zscsz" />
    <path
       style="fill:#399635;fill-opacity:1;stroke:none;stroke-width:0.264583px;stroke-linecap:butt;stroke-linejoin:miter;stroke-opacity:1"
       d="m 134.60129,49.609625 c 0.79835,1.635475 -0.33292,4.149013 1.02284,5.363125 0.43489,0.389453 1.32755,0.544125 1.74598,0.137042 1.01677,-0.989192 0.0866,-2.864327 -0.21624,-4.250194 -0.36441,-1.667756 -0.26104,-4.268662 -1.89677,-4.757107 -0.90127,-0.269128 -2.19862,0.685061 -2.31121,1.618896 -0.1002,0.831026 1.28821,1.13603 1.6554,1.888238 z"
       id="path36328"
       sodipodi:nodetypes="aaaaaaa" />
    <path
       style="fill:#358930;fill-opacity:1;stroke:none;stroke-width:0.264583px;stroke-linecap:butt;stroke-linejoin:miter;stroke-opacity:1"
       d="m 133.28404,54.276478 c -2.56277,2.757763 0.83441,6.191695 3.30691,7.916847 1.90883,1.33184 6.41048,3.901925 6.41048,3.901925 0,0 -0.0743,-6.191716 -1.4973,-9.326012 -1.17314,-2.583828 -5.65731,-5.250502 -8.22009,-2.49276 z"
       id="path36539-7"
       sodipodi:nodetypes="zscsz" />
    <ellipse
       style="fill:#db6666;fill-opacity:1;stroke:none;stroke-width:2.03469;stroke-linecap:round;stroke-linejoin:round;stroke-miterlimit:4;stroke-dasharray:none;stroke-opacity:1"
       id="path3447-5"
       cx="87.140617"
       cy="110.70007"
       rx="0.86814868"
       ry="2.2945921"
       transform="matrix(0.93833166,-0.34573646,0.57598361,0.81746124,0,0)" />
  </g>
</svg>
